…
scale_colour_discrete = scale_color_viridis_d
scale_colour_continuous = scale_color_viridis_c
```

# Problem 1

Load the dataset

``` r
library(p8105.datasets)
data("instacart")
print(instacart)
```

    ## # A tibble: 1,384,617 x 15
    ##    order_id product_id add_to_cart_ord… reordered user_id eval_set order_number
    ##       <int>      <int>            <int>     <int>   <int> <chr>           <int>
    ##  1        1      49302                1         1  112108 train               4
    ##  2        1      11109                2         1  112108 train               4
    ##  3        1      10246                3         0  112108 train               4
    ##  4        1      49683                4         0  112108 train               4
    ##  5        1      43633                5         1  112108 train               4
    ##  6        1      13176                6         0  112108 train               4
    ##  7        1      47209                7         0  112108 train               4
    ##  8        1      22035                8         1  112108 train               4
    ##  9       36      39612                1         0   79431 train              23
    ## 10       36      19660                2         1   79431 train              23
    ## # … with 1,384,607 more rows, and 8 more variables: order_dow <int>,
    ## #   order_hour_of_day <int>, days_since_prior_order <int>, product_name <chr>,
    ## #   aisle_id <int>, department_id <int>, aisle <chr>, department <chr>
…
Observations are the level of items in orders by user. There are users /
order variables – user ID, order ID, order day, and order hour. There
are also item variables – name, aisle, department, and some numeric
codes.

How many aisles, and which are most items from?

``` r
instacart %>% 
  count(aisle) %>%
  arrange(desc(n))       
```

    ## # A tibble: 134 x 2
    ##    aisle                              n
    ##    <chr>                          <int>
    ##  1 fresh vegetables              150609
    ##  2 fresh fruits                  150473
    ##  3 packaged vegetables fruits     78493
    ##  4 yogurt                         55240
    ##  5 packaged cheese                41699
    ##  6 water seltzer sparkling water  36617
    ##  7 milk                           32644
    ##  8 chips pretzels                 31269
    ##  9 soy lactosefree                26240
    ## 10 bread                          23635
    ## # … with 124 more rows
…
    ## Parsed with column specification:
    ## cols(
    ##   .default = col_double(),
    ##   day = col_character()
    ## )

    ## See spec(...) for full column specifications.

``` r
accel_df
```

    ## # A tibble: 50,400 x 6
    ##     week day_id day    min_of_the_day activity_count wd_or_wknd
    ##    <dbl>  <dbl> <fct>           <dbl>          <dbl> <fct>     
    ##  1     1      1 Friday              1           88.4 weekday   
    ##  2     1      1 Friday              2           82.2 weekday   
    ##  3     1      1 Friday              3           64.4 weekday   
    ##  4     1      1 Friday              4           70.0 weekday   
    ##  5     1      1 Friday              5           75.0 weekday   
    ##  6     1      1 Friday              6           66.3 weekday   
    ##  7     1      1 Friday              7           53.8 weekday   
    ##  8     1      1 Friday              8           47.8 weekday   
    ##  9     1      1 Friday              9           55.5 weekday   
    ## 10     1      1 Friday             10           43.0 weekday   
    ## # … with 50,390 more rows
…
snow_count = 
  ny_noaa_df %>% 
  drop_na() %>% 
  group_by(snow) %>% 
  summarize(snow_count = n()) %>% 
  arrange(desc(snow_count))
```

    ## `summarise()` ungrouping output (override with `.groups` argument)

``` r
snow_count
```

    ## # A tibble: 248 x 2
    ##     snow snow_count
    ##    <dbl>      <int>
    ##  1     0    1112758
    ##  2    25      15809
    ##  3    13      12460
    ##  4    51       9252
    ##  5     5       5669
    ##  6     8       5380
    ##  7    76       5296
    ##  8     3       5276
    ##  9    38       5050
    ## 10   102       3386
    ## # … with 238 more rows
…
